{
  "count": 25689,
  "next": "https://api.rawg.io/api/creators?key=8e549c513551423faf843bc8b968950d&page=2",
  "previous": null,
  "results": [
    {
      "id": 31,
      "name": "Gabe Newell",
      "slug": "gabe-newell",
      "image": "https://media.rawg.io/media/persons/5e5/5e5e064d3475fc3fe49d1d2debb4e36c.jpg",
      "image_background": "https://media.rawg.io/media/games/328/3283617cb7d75d67257fc58339188742.jpg",
      "games_count": 24,
      "positions": [
        {
          "id": 2,
          "name": "director",
          "slug": "director"
        },
        {
          "id": 5,
          "name": "producer",
          "slug": "producer"
        },
        {
          "id": 7,
          "name": "programmer",
          "slug": "programmer"
        }
      ],
      "games": [
        {
          "id": 4200,
          "slug": "portal-2",
          "name": "Portal 2",
          "added": 15136
        },
        {
          "id": 4291,
          "slug": "counter-strike-global-offensive",
          "name": "Counter-Strike: Global Offensive",
          "added": 13032
        },
        {
          "id": 12020,
          "slug": "left-4-dead-2",
          "name": "Left 4 Dead 2",
          "added": 12908
        },
        {
          "id": 13536,
          "slug": "portal",
          "name": "Portal",
          "added": 12804
        },
        {
          "id": 13537,
          "slug": "half-life-2",
          "name": "Half-Life 2",
          "added": 11580
        },
        {
          "id": 19710,
          "slug": "half-life-2-episode-one",
          "name": "Half-Life 2: Episode One",
          "added": 8720
        }
      ]
    },
    {
      "id": 37,
      "name": "Marc Laidlaw",
      "slug": "marc-laidlaw",
      "image": "https://media.rawg.io/media/persons/da3/da3fc907a3af9e494dc671b0c6348f5c.jpg",
      "image_background": "https://media.rawg.io/media/games/328/3283617cb7d75d67257fc58339188742.jpg",
      "games_count": 15,
      "positions": [
        {
          "id": 1,
          "name": "writer",
          "slug": "writer"
        }
      ],
      "games": [
        {
          "id": 4200,
          "slug": "portal-2",
          "name": "Portal 2",
          "added": 15136
        },
        {
          "id": 4291,
          "slug": "counter-strike-global-offensive",
          "name": "Counter-Strike: Global Offensive",
          "added": 13032
        },
        {
          "id": 12020,
          "slug": "left-4-dead-2",
          "name": "Left 4 Dead 2",
          "added": 12908
        },
        {
          "id": 13536,
          "slug": "portal",
          "name": "Portal",
          "added": 12804
        },
        {
          "id": 13537,
          "slug": "half-life-2",
          "name": "Half-Life 2",
          "added": 11580
        },
        {
          "id": 10213,
          "slug": "dota-2",
          "name": "Dota 2",
          "added": 9834
        }
      ]
    },
    {
      "id": 63,
      "name": "Robin Walker",
      "slug": "robin-walker",
      "image": "https://media.rawg.io/media/persons/b76/b76df211424e553218ce800f9b1d38f0.png",
      "image_background": "https://media.rawg.io/media/games/328/3283617cb7d75d67257fc58339188742.jpg",
      "games_count": 14,
      "positions": [
        {
          "id": 6,
          "name": "designer",
          "slug": "designer"
        }
      ],
      "games": [
        {
          "id": 4200,
          "slug": "portal-2",
          "name": "Portal 2",
          "added": 15136
        },
        {
          "id": 4291,
          "slug": "counter-strike-global-offensive",
          "name": "Counter-Strike: Global Offensive",
          "added": 13032
        },
        {
          "id": 12020,
          "slug": "left-4-dead-2",
          "name": "Left 4 Dead 2",
          "added": 12908
        },
        {
          "id": 13536,
          "slug": "portal",
          "name": "Portal",
          "added": 12804
        },
        {
          "id": 11859,
          "slug": "team-fortress-2",
          "name": "Team Fortress 2",
          "added": 10577
        },
        {
          "id": 19710,
          "slug": "half-life-2-episode-one",
          "name": "Half-Life 2: Episode One",
          "added": 8720
        }
      ]
    },
    {
      "id": 70,
      "name": "Cris Velasco",
      "slug": "cris-velasco",
      "image": "https://media.rawg.io/media/persons/6ea/6ea06e2ddd6c0190e5134f61d826f30f.jpg",
      "image_background": "https://media.rawg.io/media/games/588/588c6bdff3d4baf66ec36b1c05b793bf.jpg",
      "games_count": 52,
      "positions": [
        {
          "id": 3,
          "name": "composer",
          "slug": "composer"
        }
      ],
      "games": [
        {
          "id": 802,
          "slug": "borderlands-2",
          "name": "Borderlands 2",
          "added": 12542
        },
        {
          "id": 4828,
          "slug": "borderlands",
          "name": "Borderlands",
          "added": 8054
        },
        {
          "id": 17540,
          "slug": "injustice-gods-among-us-ultimate-edition",
          "name": "Injustice: Gods Among Us Ultimate Edition",
          "added": 7780
        },
        {
          "id": 10243,
          "slug": "company-of-heroes-2",
          "name": "Company of Heroes 2",
          "added": 7566
        },
        {
          "id": 3387,
          "slug": "bloodborne",
          "name": "Bloodborne",
          "added": 7447
        },
        {
          "id": 4502,
          "slug": "darksiders",
          "name": "Darksiders",
          "added": 6522
        }
      ]
    },
    {
      "id": 27630,
      "name": "David Speyrer",
      "slug": "david-speyrer",
      "image": "https://media.rawg.io/media/persons/513/51388ad8c1db829a2fcb0353560f0f2a.png",
      "image_background": "https://media.rawg.io/media/games/328/3283617cb7d75d67257fc58339188742.jpg",
      "games_count": 12,
      "positions": [
        {
          "id": 7,
          "name": "programmer",
          "slug": "programmer"
        }
      ],
      "games": [
        {
          "id": 4200,
          "slug": "portal-2",
          "name": "Portal 2",
          "added": 15136
        },
        {
          "id": 12020,
          "slug": "left-4-dead-2",
          "name": "Left 4 Dead 2",
          "added": 12908
        },
        {
          "id": 13536,
          "slug": "portal",
          "name": "Portal",
          "added": 12804
        },
        {
          "id": 13537,
          "slug": "half-life-2",
          "name": "Half-Life 2",
          "added": 11580
        },
        {
          "id": 19710,
          "slug": "half-life-2-episode-one",
          "name": "Half-Life 2: Episode One",
          "added": 8720
        },
        {
          "id": 19709,
          "slug": "half-life-2-episode-two",
          "name": "Half-Life 2: Episode Two",
          "added": 8611
        }
      ]
    },
    {
      "id": 3,
      "name": "Dan Houser",
      "slug": "dan-houser",
      "image": "https://media.rawg.io/media/persons/8ba/8babec5b685ff0be2beee43f3b7b3eb5.jpg",
      "image_background": "https://media.rawg.io/media/games/456/456dea5e1c7e3cd07060c14e96612001.jpg",
      "games_count": 28,
      "positions": [
        {
          "id": 1,
          "name": "writer",
          "slug": "writer"
        },
        {
          "id": 5,
          "name": "producer",
          "slug": "producer"
        },
        {
          "id": 6,
          "name": "designer",
          "slug": "designer"
        }
      ],
      "games": [
        {
          "id": 3498,
          "slug": "grand-theft-auto-v",
          "name": "Grand Theft Auto V",
          "added": 17313
        },
        {
          "id": 28,
          "slug": "red-dead-redemption-2",
          "name": "Red Dead Redemption 2",
          "added": 12027
        },
        {
          "id": 4459,
          "slug": "grand-theft-auto-iv",
          "name": "Grand Theft Auto IV",
          "added": 10276
        },
        {
          "id": 416,
          "slug": "grand-theft-auto-san-andreas",
          "name": "Grand Theft Auto: San Andreas",
          "added": 8977
        },
        {
          "id": 4514,
          "slug": "la-noire",
          "name": "L.A. Noire",
          "added": 7963
        },
        {
          "id": 430,
          "slug": "grand-theft-auto-vice-city",
          "name": "Grand Theft Auto: Vice City",
          "added": 7490
        }
      ]
    },
    {
      "id": 72,
      "name": "Jesper Kyd",
      "slug": "jesper-kyd",
      "image": "https://media.rawg.io/media/persons/2a5/2a502a143225ad0faf1f8319d58fb6c0.jpg",
      "image_background": "https://media.rawg.io/media/games/588/588c6bdff3d4baf66ec36b1c05b793bf.jpg",
      "games_count": 47,
      "positions": [
        {
          "id": 3,
          "name": "composer",
          "slug": "composer"
        }
      ],
      "games": [
        {
          "id": 802,
          "slug": "borderlands-2",
          "name": "Borderlands 2",
          "added": 12542
        },
        {
          "id": 4828,
          "slug": "borderlands",
          "name": "Borderlands",
          "added": 8054
        },
        {
          "id": 3543,
          "slug": "borderlands-the-pre-sequel",
          "name": "Borderlands: The Pre-Sequel",
          "added": 7302
        },
        {
          "id": 28568,
          "slug": "assassins-creed-ii",
          "name": "Assassin's Creed II",
          "added": 6440
        },
        {
          "id": 58654,
          "slug": "hitman-2",
          "name": "Hitman 2",
          "added": 6152
        },
        {
          "id": 4179,
          "slug": "darksiders-ii",
          "name": "Darksiders II",
          "added": 4609
        }
      ]
    },
    {
      "id": 3559,
      "name": "Eric Smith",
      "slug": "eric-smith",
      "image": "https://media.rawg.io/media/persons/c94/c9422017814776d6dd51c7af5263062d.png",
      "image_background": "https://media.rawg.io/media/games/328/3283617cb7d75d67257fc58339188742.jpg",
      "games_count": 18,
      "positions": [
        {
          "id": 4,
          "name": "artist",
          "slug": "artist"
        }
      ],
      "games": [
        {
          "id": 4200,
          "slug": "portal-2",
          "name": "Portal 2",
          "added": 15136
        },
        {
          "id": 4291,
          "slug": "counter-strike-global-offensive",
          "name": "Counter-Strike: Global Offensive",
          "added": 13032
        },
        {
          "id": 12020,
          "slug": "left-4-dead-2",
          "name": "Left 4 Dead 2",
          "added": 12908
        },
        {
          "id": 13536,
          "slug": "portal",
          "name": "Portal",
          "added": 12804
        },
        {
          "id": 19710,
          "slug": "half-life-2-episode-one",
          "name": "Half-Life 2: Episode One",
          "added": 8720
        },
        {
          "id": 19709,
          "slug": "half-life-2-episode-two",
          "name": "Half-Life 2: Episode Two",
          "added": 8611
        }
      ]
    },
    {
      "id": 42,
      "name": "Erik Johnson",
      "slug": "erik-johnson",
      "image": "https://media.rawg.io/media/persons/a7b/a7b428a6ebf07af89408e4d7032926c1.png",
      "image_background": "https://media.rawg.io/media/games/328/3283617cb7d75d67257fc58339188742.jpg",
      "games_count": 11,
      "positions": [
        {
          "id": 5,
          "name": "producer",
          "slug": "producer"
        }
      ],
      "games": [
        {
          "id": 4200,
          "slug": "portal-2",
          "name": "Portal 2",
          "added": 15136
        },
        {
          "id": 4291,
          "slug": "counter-strike-global-offensive",
          "name": "Counter-Strike: Global Offensive",
          "added": 13032
        },
        {
          "id": 12020,
          "slug": "left-4-dead-2",
          "name": "Left 4 Dead 2",
          "added": 12908
        },
        {
          "id": 13536,
          "slug": "portal",
          "name": "Portal",
          "added": 12804
        },
        {
          "id": 10213,
          "slug": "dota-2",
          "name": "Dota 2",
          "added": 9834
        },
        {
          "id": 19710,
          "slug": "half-life-2-episode-one",
          "name": "Half-Life 2: Episode One",
          "added": 8720
        }
      ]
    },
    {
      "id": 28,
      "name": "Mike Morasky",
      "slug": "mike-morasky",
      "image": "https://media.rawg.io/media/persons/c7a/c7a93276d53a31fd6d0edfd69cba5d62.jpg",
      "image_background": "https://media.rawg.io/media/games/328/3283617cb7d75d67257fc58339188742.jpg",
      "games_count": 14,
      "positions": [
        {
          "id": 1,
          "name": "writer",
          "slug": "writer"
        },
        {
          "id": 3,
          "name": "composer",
          "slug": "composer"
        }
      ],
      "games": [
        {
          "id": 4200,
          "slug": "portal-2",
          "name": "Portal 2",
          "added": 15136
        },
        {
          "id": 4291,
          "slug": "counter-strike-global-offensive",
          "name": "Counter-Strike: Global Offensive",
          "added": 13032
        },
        {
          "id": 12020,
          "slug": "left-4-dead-2",
          "name": "Left 4 Dead 2",
          "added": 12908
        },
        {
          "id": 13536,
          "slug": "portal",
          "name": "Portal",
          "added": 12804
        },
        {
          "id": 11859,
          "slug": "team-fortress-2",
          "name": "Team Fortress 2",
          "added": 10577
        },
        {
          "id": 19709,
          "slug": "half-life-2-episode-two",
          "name": "Half-Life 2: Episode Two",
          "added": 8611
        }
      ]
    }
  ]
}
